{"ddr_spec": ["DDR2_micron_16M_8b_x8_sg3E", 
"DDR2_micron_32M_8B_x4_sg25E", "DDR3_micron_32M_8B_x4_sg125", 
"DDR3_micron_32M_8B_x8_sg15", "DDR3_micron_64M_8B_x4_sg15", "DDR2_micron_32M_4B_x4_sg3E", "DDR3_micron_16M_8B_x8_sg15", "DDR3_micron_32M_8B_x4_sg15", "DDR3_micron_32M_8B_x8_sg25E", "DDR3_micron_8M_8B_x16_sg15"], "num_chans": ["1", "2", "4", "8"], "queuing_structure": ["per_rank", "per_rank_per_bank"]}
